{
  "tasks": [
    {
      "creationDate": "2017-07-24T05:25:38.237Z",
      "lastUpdateDate": "2017-07-24T05:25:38.237Z",
      "state": "TODO",
      "status": "CREATED",
      "localId": "t1",
      "parentLocalId": "c3328206-28d0-4b3a-84e9-94d26edf5a69",
      "objectAri": "ari:cloud:banana:f7ebe2c0-0309-4687-b913-41d422f2110b:message/86eaefba-7030-11e7-82a6-02420aff0003",
      "containerAri": "ari:cloud:banana:f7ebe2c0-0309-4687-b913-41d422f2110b:conversation/b17d8707-db6e-436e-95b9-102dd1986293",
      "creator": {
        "id": "id:julien",
        "displayName": "Julien Michel Hoarau",
        "nickname": "Julien 👨🏽‍💻",
        "avatarUrl": "https://avatar-cdn.atlassian.com/4cc5629af38fb272d40446a51f58ab71"
      },
      "rawContent": "[{\"text\":\"1st task\",\"marks\":[]}]",
      "participants": [],
      "type": "TASK"
    },
    {
      "creationDate": "2017-07-24T05:25:38.237Z",
      "lastUpdateDate": "2017-07-24T05:25:38.237Z",
      "state": "DONE",
      "status": "CREATED",
      "localId": "t2",
      "parentLocalId": "c3328206-28d0-4b3a-84e9-94d26edf5a69",
      "objectAri": "ari:cloud:banana:f7ebe2c0-0309-4687-b913-41d422f2110b:message/86eaefba-7030-11e7-82a6-02420aff0003",
      "containerAri": "ari:cloud:banana:f7ebe2c0-0309-4687-b913-41d422f2110b:conversation/b17d8707-db6e-436e-95b9-102dd1986293",
      "creator": {
        "id": "id:tara",
        "displayName": "Tara Tjandra",
        "nickname": "Tara 🕳",
        "avatarUrl": "https://avatar-cdn.atlassian.com/ed5c802ddd0ef7ec9da68da9fa51c186"
      },
      "rawContent": "[{\"type\":\"text\",\"text\":\"Hello world\"},{\"type\":\"hardBreak\"},{\"type\":\"text\",\"text\":\"This is a some content \"},{\"type\":\"emoji\",\"attrs\":{\"shortName\":\":wink:\",\"id\":\"1f609\",\"text\":\"😉\"}},{\"type\":\"text\",\"text\":\" \"},{\"type\":\"mention\",\"attrs\":{\"id\":\"0\",\"text\":\"@Carolyn\",\"accessLevel\":\"CONTAINER\"}},{\"type\":\"text\",\"text\":\" \"},{\"type\":\"text\",\"text\":\"was\",\"marks\":[{\"type\":\"strong\"}]},{\"type\":\"text\",\"text\":\" \"},{\"type\":\"text\",\"text\":\"here\",\"marks\":[{\"type\":\"em\"},{\"type\":\"strong\"}]},{\"type\":\"text\",\"text\":\". \"}]",
      "participants": [],
      "type": "TASK"
    },
    {
      "creationDate": "2017-07-24T05:25:38.237Z",
      "lastUpdateDate": "2017-07-24T05:25:38.237Z",
      "state": "TODO",
      "status": "CREATED",
      "localId": "t3",
      "parentLocalId": "c3328206-28d0-4b3a-84e9-94d26edf5a69",
      "objectAri": "ari:cloud:banana:f7ebe2c0-0309-4687-b913-41d422f2110b:message/86eaefba-7030-11e7-82a6-02420aff0003",
      "containerAri": "ari:cloud:banana:f7ebe2c0-0309-4687-b913-41d422f2110b:conversation/b17d8707-db6e-436e-95b9-102dd1986293",
      "creator": {
        "id": "id:julien",
        "displayName": "Julien Michel Hoarau",
        "nickname": "Julien 👨🏽‍💻",
        "avatarUrl": "https://avatar-cdn.atlassian.com/4cc5629af38fb272d40446a51f58ab71"
      },
      "rawContent": "[{\"text\":\"3rd task\",\"marks\":[]}]",
      "participants": [],
      "type": "TASK"
    },
    {
      "creationDate": "2017-07-24T05:25:38.237Z",
      "lastUpdateDate": "2017-07-24T05:25:38.237Z",
      "state": "DONE",
      "status": "CREATED",
      "localId": "t4",
      "parentLocalId": "c3328206-28d0-4b3a-84e9-94d26edf5a69",
      "objectAri": "ari:cloud:banana:f7ebe2c0-0309-4687-b913-41d422f2110b:message/86eaefba-7030-11e7-82a6-02420aff0003",
      "containerAri": "ari:cloud:banana:f7ebe2c0-0309-4687-b913-41d422f2110b:conversation/b17d8707-db6e-436e-95b9-102dd1986293",
      "creator": {
        "id": "id:tara",
        "displayName": "Tara Tjandra",
        "nickname": "Tara 🕳",
        "avatarUrl": "https://avatar-cdn.atlassian.com/ed5c802ddd0ef7ec9da68da9fa51c186"
      },
      "rawContent": "[{\"type\":\"text\",\"text\":\"Hello world\"},{\"type\":\"hardBreak\"},{\"type\":\"text\",\"text\":\"This is a some content \"},{\"type\":\"emoji\",\"attrs\":{\"shortName\":\":wink:\",\"id\":\"1f609\",\"text\":\"😉\"}},{\"type\":\"text\",\"text\":\" \"},{\"type\":\"mention\",\"attrs\":{\"id\":\"0\",\"text\":\"@Carolyn\",\"accessLevel\":\"CONTAINER\"}},{\"type\":\"text\",\"text\":\" \"},{\"type\":\"text\",\"text\":\"was\",\"marks\":[{\"type\":\"strong\"}]},{\"type\":\"text\",\"text\":\" \"},{\"type\":\"text\",\"text\":\"here\",\"marks\":[{\"type\":\"em\"},{\"type\":\"strong\"}]},{\"type\":\"text\",\"text\":\". \"}]",
      "participants": [],
      "type": "TASK"
    },
    {
      "creationDate": "2017-07-24T05:25:38.237Z",
      "lastUpdateDate": "2017-07-24T05:25:38.237Z",
      "state": "TODO",
      "status": "CREATED",
      "localId": "t5",
      "parentLocalId": "c3328206-28d0-4b3a-84e9-94d26edf5a69",
      "objectAri": "ari:cloud:banana:f7ebe2c0-0309-4687-b913-41d422f2110b:message/86eaefba-7030-11e7-82a6-02420aff0003",
      "containerAri": "ari:cloud:banana:f7ebe2c0-0309-4687-b913-41d422f2110b:conversation/b17d8707-db6e-436e-95b9-102dd1986293",
      "creator": {
        "id": "id:julien",
        "displayName": "Julien Michel Hoarau",
        "nickname": "Julien 👨🏽‍💻",
        "avatarUrl": "https://avatar-cdn.atlassian.com/4cc5629af38fb272d40446a51f58ab71"
      },
      "rawContent": "[{\"text\":\"5th task\",\"marks\":[]}]",
      "participants": [],
      "type": "TASK"
    }
  ],
  "meta": {
    "cursor": "DECIDED|2017-07-24T05:25:38.237Z|ari:cloud:banana:f7ebe2c0-0309-4687-b913-41d422f2110b:message/86eaefba-7030-11e7-82a6-02420aff0003|83b35593-cb98-46de-a704-b4eb9aac4b9c"
  }
}
